
Timestamp:1 ns:0
BCID 0 LB 430897Beam1IntensityBCID=3.85009e-37, Beam2IntensityBCID=3.85009e-37
BCID 0 LB 430897Beam1IntensityBCID=3.85009e-37, Beam2IntensityBCID=3.85009e-37
BCID 1 LB 430897Beam1IntensityBCID=3.85009e-37, Beam2IntensityBCID=3.85009e-37
BCID 1 LB 430897Beam1IntensityBCID=3.85009e-37, Beam2IntensityBCID=3.85009e-37
BCID 2 LB 430897Beam1IntensityBCID=3.85009e-37, Beam2IntensityBCID=3.85009e-37
BCID 2 LB 430897Beam1IntensityBCID=3.85009e-37, Beam2IntensityBCID=3.85009e-37
BCID 3 LB 430897Beam1IntensityBCID=3.85009e-37, Beam2IntensityBCID=3.85009e-37
BCID 3 LB 430897Beam1IntensityBCID=3.85009e-37, Beam2IntensityBCID=3.85009e-37
