ActsPixelClusterizationAlg                                        INFO Clusterization statistics
|----------|------------|
| RDOs     |    3423993 |
| Clusters |    1165578 |
|----------|------------|
ActsStripClusterizationAlg                                        INFO Clusterization statistics
|----------|------------|
| RDOs     |    1345365 |
| Clusters |    1081478 |
|----------|------------|
ActsPixelSpacePointFormationAlg                                   INFO Space Point Formation statistics
|--------------|------------|
| Clusters     |    1165578 |
| Space Points |    1165578 |
|--------------|------------|
ActsStripSpacePointFormationAlg                                   INFO Space Point Formation statistics
|----------------------|------------|
| Clusters             |    1081478 |
| Space Points         |     325456 |
| Overlap Space Points |      94491 |
|----------------------|------------|
ActsPixelSeedingAlg                                               INFO Seed statistics
|---------------------|------------|
| Spacepoints         |    1165578 |
| Seeds               |     123542 |
| No track parameters |          0 |
|---------------------|------------|
ActsStripSeedingAlg                                               INFO Seed statistics
|---------------------|------------|
| Spacepoints         |     419947 |
| Seeds               |      24791 |
| No track parameters |          0 |
|---------------------|------------|
ActsTrackFindingAlg                                               INFO statistics
|-----------------------------------|------------|------------|------------|
|                           All eta | PPP        | SSS        | ALL        |
|-----------------------------------|------------|------------|------------|
| Input seeds                       |     123542 |      24791 |     148333 |
| No track parameters               |          0 |          0 |          0 |
| Used   seeds                      |      78109 |      15623 |      93732 |
| Cannot find track                 |      63304 |      11788 |      75092 |
| Duplicate seeds                   |      45433 |       9168 |      54601 |
| CKF tracks                        |      14805 |       3835 |      18640 |
| Rejected refined parameters       |          0 |          0 |          0 |
| selected tracks                   |      13383 |        843 |      14226 |
| Stopped tracks reaching max holes |      60890 |      11294 |      72184 |
| Seeds with more than one branch   |          0 |          0 |          0 |
| Tracks failing second CKF         |          0 |          0 |          0 |
| Stopped tracks below pT cut       |       2414 |        494 |       2908 |
| Stopped tracks above max eta      |          0 |          0 |          0 |
|-----------------------------------|------------|------------|------------|
ActsTrackFindingAlg                                               INFO Ratios
|------------------------------------------|------------|------------|------------|
|                                          | PPP        | SSS        | ALL        |
|------------------------------------------|------------|------------|------------|
| failed / seeds                           |   0.512409 |   0.475495 |   0.506239 |
| duplication / seeds                      |   0.367753 |   0.369812 |   0.368097 |
| Rejected refined params / seeds          |          0 |          0 |          0 |
| selected / CKF tracks                    |   0.903951 |   0.219817 |   0.763197 |
| selected tracks / used seeds             |   0.171337 |  0.0539589 |   0.151773 |
| branched tracks / used seeds             |          0 |          0 |          0 |
| no 2nd CKF / CKF tracks                  |          0 |          0 |          0 |
|------------------------------------------|------------|------------|------------|
| selected / CKF tracks           0.0- 0.5 |   0.890205 |   0.124352 |   0.711259 |
|                                 0.5- 1.0 |   0.913315 |   0.256262 |   0.739419 |
|                                 1.0- 1.5 |   0.885971 |   0.215613 |   0.704282 |
|                                 1.5- 2.0 |    0.79267 |   0.237213 |   0.556815 |
|                                 2.0- 2.5 |    0.94335 |   0.216683 |   0.696713 |
|                                 2.5- 3.0 |   0.882987 |          0 |   0.882987 |
|                                 3.0- 3.5 |   0.942103 |          0 |   0.942103 |
|                                 3.5-+inf |   0.960328 |          0 |   0.960328 |
|------------------------------------------|------------|------------|------------|
ActsPrdAssociationAlg                                             INFO Prd Map statistics
|-----------------------|------------|
| N. Tracks             |       9547 |
| N. Pixel Measurements |     102086 |
| N. Strip Measurements |      40068 |
| N. Hgtd Measurements  |          0 |
|-----------------------|------------|
ActsLargeRadiusPixelClusterPreparationAlg                         INFO Data Prep statistics
|---------|------------|
| Inputs  |    1165578 |
| Outputs |    1063564 |
|---------|------------|
ActsLargeRadiusStripClusterPreparationAlg                         INFO Data Prep statistics
|---------|------------|
| Inputs  |    1081478 |
| Outputs |    1041445 |
|---------|------------|
ActsLargeRadiusStripSpacePointPreparationAlg                      INFO Data Prep statistics
|---------|------------|
| Inputs  |     325456 |
| Outputs |     303573 |
|---------|------------|
ActsLargeRadiusStripOv...pSpacePointPreparationAlg                INFO Data Prep statistics
|---------|------------|
| Inputs  |      94491 |
| Outputs |      88169 |
|---------|------------|
ActsLargeRadiusStripSeedingAlg                                    INFO Seed statistics
|---------------------|------------|
| Spacepoints         |     391742 |
| Seeds               |       9674 |
| No track parameters |          0 |
|---------------------|------------|
ActsLargeRadiusTrackFindingAlg                                    INFO statistics
|-----------------------------------|------------|------------|
|                           All eta | SSS        | ALL        |
|-----------------------------------|------------|------------|
| Input seeds                       |       9674 |       9674 |
| No track parameters               |          0 |          0 |
| Used   seeds                      |       9487 |       9487 |
| Cannot find track                 |       8541 |       8541 |
| Duplicate seeds                   |        187 |        187 |
| CKF tracks                        |        946 |        946 |
| Rejected refined parameters       |          0 |          0 |
| selected tracks                   |        113 |        113 |
| Stopped tracks reaching max holes |       6657 |       6657 |
| Seeds with more than one branch   |          0 |          0 |
| Tracks failing second CKF         |          0 |          0 |
| Stopped tracks below pT cut       |       1884 |       1884 |
| Stopped tracks above max eta      |          0 |          0 |
|-----------------------------------|------------|------------|
ActsLargeRadiusTrackFindingAlg                                    INFO Ratios
|------------------------------------------|------------|------------|
|                                          | SSS        | ALL        |
|------------------------------------------|------------|------------|
| failed / seeds                           |   0.882882 |   0.882882 |
| duplication / seeds                      |  0.0193302 |  0.0193302 |
| Rejected refined params / seeds          |          0 |          0 |
| selected / CKF tracks                    |    0.11945 |    0.11945 |
| selected tracks / used seeds             |   0.011911 |   0.011911 |
| branched tracks / used seeds             |          0 |          0 |
| no 2nd CKF / CKF tracks                  |          0 |          0 |
|------------------------------------------|------------|------------|
| selected / CKF tracks           0.0- 0.5 |   0.169014 |   0.169014 |
|                                 0.5- 1.0 |   0.214286 |   0.214286 |
|                                 1.0- 1.5 |   0.228261 |   0.228261 |
|                                 1.5- 2.0 |   0.102941 |   0.102941 |
|                                 2.0- 2.5 |  0.0687285 |  0.0687285 |
|                                 2.5- 3.0 |          0 |          0 |
|                                 3.0- 3.5 |          0 |          0 |
|                                 3.5-+inf |          0 |          0 |
|------------------------------------------|------------|------------|
ActsLargeRadiusPrdAssociationAlg                                  INFO Prd Map statistics
|-----------------------|------------|
| N. Tracks             |         85 |
| N. Pixel Measurements |        486 |
| N. Strip Measurements |        799 |
| N. Hgtd Measurements  |          0 |
|-----------------------|------------|
ActsConversionPixelClusterPreparationAlg                          INFO Data Prep statistics
|---------|------------|
| Inputs  |    1165578 |
| Outputs |      27114 |
|---------|------------|
ActsConversionStripClusterPreparationAlg                          INFO Data Prep statistics
|---------|------------|
| Inputs  |    1081478 |
| Outputs |      15516 |
|---------|------------|
ActsConversionStripSpacePointPreparationAlg                       INFO Data Prep statistics
|---------|------------|
| Inputs  |     325456 |
| Outputs |       4502 |
|---------|------------|
ActsConversionStripSeedingAlg                                     INFO Seed statistics
|---------------------|------------|
| Spacepoints         |       4502 |
| Seeds               |         71 |
| No track parameters |          0 |
|---------------------|------------|
ActsConversionTrackFindingAlg                                     INFO statistics
|-----------------------------------|------------|------------|
|                           All eta | SSS        | ALL        |
|-----------------------------------|------------|------------|
| Input seeds                       |         71 |         71 |
| No track parameters               |          0 |          0 |
| Used   seeds                      |         71 |         71 |
| Cannot find track                 |         54 |         54 |
| Duplicate seeds                   |          0 |          0 |
| CKF tracks                        |         17 |         17 |
| Rejected refined parameters       |          0 |          0 |
| selected tracks                   |          0 |          0 |
| Stopped tracks reaching max holes |         46 |         46 |
| Seeds with more than one branch   |          0 |          0 |
| Tracks failing second CKF         |          0 |          0 |
| Stopped tracks below pT cut       |          8 |          8 |
| Stopped tracks above max eta      |          0 |          0 |
|-----------------------------------|------------|------------|
ActsConversionTrackFindingAlg                                     INFO Ratios
|------------------------------------------|------------|------------|
|                                          | SSS        | ALL        |
|------------------------------------------|------------|------------|
| failed / seeds                           |   0.760563 |   0.760563 |
| duplication / seeds                      |          0 |          0 |
| Rejected refined params / seeds          |          0 |          0 |
| selected / CKF tracks                    |          0 |          0 |
| selected tracks / used seeds             |          0 |          0 |
| branched tracks / used seeds             |          0 |          0 |
| no 2nd CKF / CKF tracks                  |          0 |          0 |
|------------------------------------------|------------|------------|
| selected / CKF tracks           0.0- 0.5 |          0 |          0 |
|                                 0.5- 1.0 |          0 |          0 |
|                                 1.0- 1.5 |          0 |          0 |
|                                 1.5- 2.0 |          0 |          0 |
|                                 2.0- 2.5 |          0 |          0 |
|                                 2.5- 3.0 |          0 |          0 |
|                                 3.0- 3.5 |          0 |          0 |
|                                 3.5-+inf |          0 |          0 |
|------------------------------------------|------------|------------|
ActsConversionPrdAssociationAlg                                   INFO Prd Map statistics
|-----------------------|------------|
| N. Tracks             |          0 |
| N. Pixel Measurements |          0 |
| N. Strip Measurements |          0 |
| N. Hgtd Measurements  |          0 |
|-----------------------|------------|
ActsLowPtPixelClusterPreparationAlg                               INFO Data Prep statistics
|---------|------------|
| Inputs  |    1165578 |
| Outputs |    1063079 |
|---------|------------|
ActsLowPtStripClusterPreparationAlg                               INFO Data Prep statistics
|---------|------------|
| Inputs  |    1081478 |
| Outputs |    1040646 |
|---------|------------|
ActsLowPtPixelSpacePointPreparationAlg                            INFO Data Prep statistics
|---------|------------|
| Inputs  |    1165578 |
| Outputs |    1063079 |
|---------|------------|
ActsLowPtStripSpacePointPreparationAlg                            INFO Data Prep statistics
|---------|------------|
| Inputs  |     325456 |
| Outputs |     303150 |
|---------|------------|
ActsLowPtStripOverlapSpacePointPreparationAlg                     INFO Data Prep statistics
|---------|------------|
| Inputs  |      94491 |
| Outputs |      88020 |
|---------|------------|
ActsLowPtPixelSeedingAlg                                          INFO Seed statistics
|---------------------|------------|
| Spacepoints         |    1063079 |
| Seeds               |      46851 |
| No track parameters |          0 |
|---------------------|------------|
ActsLowPtStripSeedingAlg                                          INFO Seed statistics
|---------------------|------------|
| Spacepoints         |     391170 |
| Seeds               |       9206 |
| No track parameters |          0 |
|---------------------|------------|
ActsLowPtTrackFindingAlg                                          INFO statistics
|-----------------------------------|------------|------------|------------|
|                           All eta | PPP        | SSS        | ALL        |
|-----------------------------------|------------|------------|------------|
| Input seeds                       |      46851 |       9206 |      56057 |
| No track parameters               |          0 |          0 |          0 |
| Used   seeds                      |      46042 |       8878 |      54920 |
| Cannot find track                 |      44906 |       7104 |      52010 |
| Duplicate seeds                   |        809 |        328 |       1137 |
| CKF tracks                        |       1136 |       1774 |       2910 |
| Rejected refined parameters       |          0 |          0 |          0 |
| selected tracks                   |        620 |         50 |        670 |
| Stopped tracks reaching max holes |      44464 |       7062 |      51526 |
| Seeds with more than one branch   |          0 |          0 |          0 |
| Tracks failing second CKF         |          0 |          1 |          1 |
| Stopped tracks below pT cut       |        442 |         42 |        484 |
| Stopped tracks above max eta      |          0 |          0 |          0 |
|-----------------------------------|------------|------------|------------|
ActsLowPtTrackFindingAlg                                          INFO Ratios
|------------------------------------------|------------|------------|------------|
|                                          | PPP        | SSS        | ALL        |
|------------------------------------------|------------|------------|------------|
| failed / seeds                           |   0.958485 |   0.771671 |   0.927806 |
| duplication / seeds                      |  0.0172675 |  0.0356289 |  0.0202829 |
| Rejected refined params / seeds          |          0 |          0 |          0 |
| selected / CKF tracks                    |   0.545775 |  0.0281849 |   0.230241 |
| selected tracks / used seeds             |   0.013466 |  0.0056319 |  0.0121996 |
| branched tracks / used seeds             |          0 |          0 |          0 |
| no 2nd CKF / CKF tracks                  |          0 | 0.000563698 | 0.000343643 |
|------------------------------------------|------------|------------|------------|
| selected / CKF tracks           0.0- 0.5 |   0.833333 |          0 |       0.36 |
|                                 0.5- 1.0 |   0.965909 |  0.0215827 |   0.387665 |
|                                 1.0- 1.5 |   0.948905 |  0.0701754 |   0.461039 |
|                                 1.5- 2.0 |   0.917431 |  0.0460894 |   0.319271 |
|                                 2.0- 2.5 |  0.0657895 | 0.00330033 |  0.0102639 |
|                                 2.5- 3.0 |  0.0131004 |          0 |  0.0131004 |
|                                 3.0- 3.5 |  0.0210526 |          0 |  0.0210526 |
|                                 3.5-+inf |  0.0657895 |          0 |  0.0657895 |
|------------------------------------------|------------|------------|------------|
ActsLowPtPrdAssociationAlg                                        INFO Prd Map statistics
|-----------------------|------------|
| N. Tracks             |        509 |
| N. Pixel Measurements |       3848 |
| N. Strip Measurements |       4217 |
| N. Hgtd Measurements  |          0 |
|-----------------------|------------|
